
DisplayName "Grand Noah Palace 2F"



EVENT   1
 PAGE   1
  250(bytes(0x04,0x08,0x6f,0x3a,0x0c,0x52,0x50,0x47,0x3a,0x3a,0x53,0x45,0x08,0x3a,0x0a,0x40,0x6e,0x61,0x6d,0x65,0x49,0x22,0x09,0x4d,0x6f,0x76,0x65,0x06,0x3a,0x06,0x45,0x54,0x3a,0x0b,0x40,0x70,0x69,0x74,0x63,0x68,0x69,0x69,0x3a,0x0c,0x40,0x76,0x6f,0x6c,0x75,0x6d,0x65,0x69,0x55))
  TeleportPlayer(0,382,39,12,0,0)
  0()



EVENT   2
 PAGE   1
  250(bytes(0x04,0x08,0x6f,0x3a,0x0c,0x52,0x50,0x47,0x3a,0x3a,0x53,0x45,0x08,0x3a,0x0a,0x40,0x6e,0x61,0x6d,0x65,0x49,0x22,0x09,0x4d,0x6f,0x76,0x65,0x06,0x3a,0x06,0x45,0x54,0x3a,0x0b,0x40,0x70,0x69,0x74,0x63,0x68,0x69,0x69,0x3a,0x0c,0x40,0x76,0x6f,0x6c,0x75,0x6d,0x65,0x69,0x55))
  TeleportPlayer(0,382,39,12,0,0)
  0()



EVENT   3
 PAGE   1
  250(bytes(0x04,0x08,0x6f,0x3a,0x0c,0x52,0x50,0x47,0x3a,0x3a,0x53,0x45,0x08,0x3a,0x0a,0x40,0x6e,0x61,0x6d,0x65,0x49,0x22,0x09,0x4d,0x6f,0x76,0x65,0x06,0x3a,0x06,0x45,0x54,0x3a,0x0b,0x40,0x70,0x69,0x74,0x63,0x68,0x69,0x69,0x3a,0x0c,0x40,0x76,0x6f,0x6c,0x75,0x6d,0x65,0x69,0x55))
  TeleportPlayer(0,382,39,12,0,0)
  0()



EVENT   4
 PAGE   1
  If(1,1001,0,25,2)
   If(1,1052,0,1,0)
    ChangeVariable(1052,1052,0,0,2)
    217()
    PictureDisplay(5,"80_grandnoa_st01",0,0,0,0,100,100,0,0)
    PictureMove(5,null,0,0,0,0,100,100,255,0,30,true)
    ShowMessageFace("grandnoa_fc1",0,0,2,1)
    ShowMessage("\\n<グランドノア女王>Welcome to my palace, Queen Sara.\nI'm glad to see you overcame the troubles you were going through.")
    ShowMessageFace("sara_fc1",1,0,2,2)
    ShowMessage("\\n<サラ>...Good to see you again, too.\nSadly, everything Sabasa suffered was due to my own inadequacies.")
    ShowMessageFace("grandnoa_fc1",0,0,2,3)
    ShowMessage("\\n<グランドノア女王>I heard you temporarily abdicated the throne, but then your parliament reinstated you as Queen?")
    ShowMessageFace("sara_fc1",1,0,2,4)
    ShowMessage("\\n<サラ>That's right. I still enjoy the loving support of the people of Sabasa. Our country is now a Constitutional Monarchy, with a parliament and a queen.")
    ShowMessageFace("sara_fc1",1,0,2,5)
    ShowMessage("\\n<サラ>Sabasa aside, I'm curious about the incident at Esta and its connection to Tartarus.")
    ShowMessageFace("grandnoa_fc1",0,0,2,6)
    ShowMessage("\\n<グランドノア女王>That's an interesting topic, but first, how about you introduce your companions?")
    ShowMessageFace("ruka_fc1",0,0,2,7)
    ShowMessage("\\n<ルカ>Umm... I'm...")
    ShowMessageFace("sara_fc1",1,0,2,8)
    ShowMessage("\\n<サラ>They're traveling heroes and experts when it comes to events surrounding Tartarus. Sabasa and San Ilia can vouch for their abilities.")
    ShowMessageFace("sara_fc1",1,0,2,9)
    ShowMessage("\\n<サラ>Therefore, we ask that you allow us to join the investigation into the disappearance of the residents of Esta. I promise it will be beneficial for your country as well.")
    ShowMessageFace("grandnoa_fc1",0,0,2,10)
    ShowMessage("\\n<グランドノア女王>............")
    PictureDisplay(5,"80_grandnoa_st02",0,0,0,0,100,100,255,0)
    ShowMessageFace("grandnoa_fc1",1,0,2,11)
    ShowMessage("\\n<グランドノア女王>Permission granted. I'll make the arrangements at--")
    241(bytes(0x04,0x08,0x6f,0x3a,0x0d,0x52,0x50,0x47,0x3a,0x3a,0x42,0x47,0x4d,0x08,0x3a,0x0a,0x40,0x6e,0x61,0x6d,0x65,0x49,0x22,0x0a,0x6b,0x69,0x6b,0x69,0x32,0x06,0x3a,0x06,0x45,0x54,0x3a,0x0c,0x40,0x76,0x6f,0x6c,0x75,0x6d,0x65,0x69,0x69,0x3a,0x0b,0x40,0x70,0x69,0x74,0x63,0x68,0x69,0x69))
    ShowMessageFace("",0,0,2,12)
    ShowMessage("\\n<???>A moment, Your Majesty.")
    PictureClear(5)
    Wait(60)
    250(bytes(0x04,0x08,0x6f,0x3a,0x0c,0x52,0x50,0x47,0x3a,0x3a,0x53,0x45,0x08,0x3a,0x0a,0x40,0x6e,0x61,0x6d,0x65,0x49,0x22,0x0d,0x6d,0x6f,0x6e,0x5f,0x77,0x61,0x72,0x70,0x06,0x3a,0x06,0x45,0x54,0x3a,0x0b,0x40,0x70,0x69,0x74,0x63,0x68,0x69,0x69,0x3a,0x0c,0x40,0x76,0x6f,0x6c,0x75,0x6d,0x65,0x69,0x55))
    ChangeSwitch(31,31,0)
    205(5,bytes(0x04,0x08,0x6f,0x3a,0x13,0x52,0x50,0x47,0x3a,0x3a,0x4d,0x6f,0x76,0x65,0x52,0x6f,0x75,0x74,0x65,0x09,0x3a,0x0c,0x40,0x72,0x65,0x70,0x65,0x61,0x74,0x46,0x3a,0x0f,0x40,0x73,0x6b,0x69,0x70,0x70,0x61,0x62,0x6c,0x65,0x46,0x3a,0x0a,0x40,0x77,0x61,0x69,0x74,0x54,0x3a,0x0a,0x40,0x6c,0x69,0x73,0x74,0x5b,0x07,0x6f,0x3a,0x15,0x52,0x50,0x47,0x3a,0x3a,0x4d,0x6f,0x76,0x65,0x43,0x6f,0x6d,0x6d,0x61,0x6e,0x64,0x07,0x3a,0x0a,0x40,0x63,0x6f,0x64,0x65,0x69,0x06,0x3a,0x10,0x40,0x70,0x61,0x72,0x61,0x6d,0x65,0x74,0x65,0x72,0x73,0x5b,0x00,0x6f,0x3b,0x0a,0x07,0x3b,0x0b,0x69,0x00,0x3b,0x0c,0x5b,0x00))
    ShowMessageFace("grandnoa_fc1",0,0,2,13)
    ShowMessage("\\n<グランドノア女王>Do you have an objection, Mephisto?")
    PictureDisplay(5,"80_mefist_st01",0,0,0,0,100,100,0,0)
    PictureMove(5,null,0,0,0,0,100,100,255,0,30,true)
    ShowMessageFace("mefist_fc1",0,0,2,14)
    ShowMessage("\\n<メフィスト>I wouldn't presume to second guess your decisions, Majesty... However, please allow me to introduce myself to the Hero Luka and his companions.")
    ShowMessageFace("mefist_fc1",0,0,2,15)
    ShowMessage("\\n<メフィスト>I am Mephisto, magical advisor to Grand Noah. I handle magical education and provide counsel to Her Majesty, the Queen.")
    ShowMessageFace("ruka_fc1",0,0,2,16)
    ShowMessage("\\n<ルカ>I am the Hero Luka. Nice to meet you...")
    If(0,4,0)
     ShowMessageFace("alice_fc5",0,0,2,17)
     ShowMessage("\\n<アリス>I'm his companion, Alice.")
     0()
    EndIf()
    If(0,5,0)
     ShowMessageFace("iriasu_fc4",0,0,2,18)
     ShowMessage("\\n<イリアス>Despite appearances, I am your Goddess Ilias, Creator of the World.")
     0()
    EndIf()
    ShowMessageFace("mefist_fc1",0,0,2,19)
    ShowMessage("\\n<メフィスト>Pleased to meet you, young heroes. Now, about you joining the Esta investigation team...")
    ShowMessageFace("mefist_fc1",0,0,2,20)
    ShowMessage("\\n<メフィスト>Needless to say, the Esta incident is of utmost concern to our country, especially given the rumors that it may have been the result of a covert military operation by Grangold.")
    ShowMessageFace("mefist_fc1",0,0,2,21)
    ShowMessage("\\n<メフィスト>In light of that, I wonder if we should involve outsiders in the investigation so casually...")
    PictureDisplay(6,"80_grandnoa_st01",0,0,-150,0,100,100,255,0)
    PictureDisplay(5,"80_mefist_st01",0,0,150,0,100,100,255,0)
    ShowMessageFace("grandnoa_fc1",0,0,2,22)
    ShowMessage("\\n<グランドノア女王>In other words, you oppose adding them to the investigation team?")
    ShowMessageFace("mefist_fc1",0,0,2,23)
    ShowMessage("\\n<メフィスト>I don't oppose it. Rather, I simply think it necessary for them to demonstrate their talents.")
    ShowMessageFace("mefist_fc1",0,0,2,24)
    ShowMessage("\\n<メフィスト>It just so happens that the Queen's Cup is being held in the Colosseum in three days time. Why don't you participate in the tournament and show us what you can do?")
    If(4,202,0)
     ShowMessageFace("bonny_fc1",0,0,2,25)
     ShowMessage("\\n<ボニー>We're going to fight in the Colosseum!?")
     0()
    EndIf()
    ShowMessageFace("mefist_fc1",0,0,2,26)
    ShowMessage("\\n<メフィスト>If Sabasa and San Ilia both vouch for you, surely winning a little tournament is child's play. Right, Queen Sara?")
    ShowMessageFace("sara_fc1",3,0,2,27)
    ShowMessage("\\n<サラ>Well, that's not...")
    ShowMessageFace("",0,0,2,28)
    ShowMessage("Sara glances over at me...")
    ShowChoices(strings("Nod confidently","Shake your head in silence","Complain"),0)
    IfPlayerPicksChoice(0,null)
     ShowMessageFace("",0,0,2,29)
     ShowMessage("I nod confidently to Sara!")
     ShowMessageFace("sara_fc1",1,0,2,30)
     ShowMessage("\\n<サラ>...We have no objections, assuming we're allowed into the investigation team if we demonstrate our strength in the tournament.")
     ShowMessageFace("mefist_fc1",0,0,2,31)
     ShowMessage("\\n<メフィスト>Excellent... Is that satisfactory to you, Your Majesty?")
     ShowMessageFace("grandnoa_fc1",0,0,2,32)
     ShowMessage("\\n<グランドノア女王>It is. Win the Queen's Cup, and I shall permit you to join the investigation team.")
     0()
    IfPlayerPicksChoice(1,null)
     ShowMessageFace("",0,0,2,33)
     ShowMessage("I silently shake my head back and forth...")
     ShowMessageFace("sara_fc1",2,0,2,34)
     ShowMessage("\\n<サラ>...We must decline.\nWinning a tournament seems an inappropriate condition for joining the investigation team.")
     ShowMessageFace("mefist_fc1",0,0,2,35)
     ShowMessage("\\n<メフィスト>Oh, how disappointing.\nIs that the level of commitment we can expect from your investigation?")
     ShowMessageFace("mefist_fc1",0,0,2,36)
     ShowMessage("\\n<メフィスト>If so, then perhaps we shouldn't let you...")
     If(0,4,0)
      ShowMessageFace("alice_fc5",2,0,2,37)
      ShowMessage("\\n<アリス>Hold on! You'll let us investigate if we win the tournament, right? I'll do it.")
      0()
     EndIf()
     If(0,5,0)
      ShowMessageFace("iriasu_fc4",7,0,2,38)
      ShowMessage("\\n<イリアス>Wait, you'll let us investigate if we win, correct? In that case, we'll defeat everyone who stands in our way, you included.")
      0()
     EndIf()
     ShowMessageFace("mefist_fc1",0,0,2,39)
     ShowMessage("\\n<メフィスト>So you're changing your minds?\nIs that all right, Your Majesty?")
     ShowMessageFace("grandnoa_fc1",0,0,2,40)
     ShowMessage("\\n<グランドノア女王>It is. Win the Queen's Cup, and I shall permit you to join the investigation team.")
     0()
    IfPlayerPicksChoice(2,null)
     ShowMessageFace("ruka_fc1",0,0,2,41)
     ShowMessage("\\n<ルカ>What does winning a tournament have to do with the investigation? Forcing us to do that just to join the team doesn't make any sense.")
     ShowMessageFace("mefist_fc1",0,0,2,42)
     ShowMessage("\\n<メフィスト>Oh, how disappointing.\nIs that the level of commitment we can expect from your investigation?")
     ShowMessageFace("mefist_fc1",0,0,2,43)
     ShowMessage("\\n<メフィスト>If so, then perhaps we shouldn't let you...")
     If(0,4,0)
      ShowMessageFace("alice_fc5",2,0,2,44)
      ShowMessage("\\n<アリス>Hold on! You'll let us investigate if we win the tournament, right? I'll do it.")
      0()
     EndIf()
     If(0,5,0)
      ShowMessageFace("iriasu_fc4",7,0,2,45)
      ShowMessage("\\n<イリアス>Wait, you'll let us investigate if we win, correct? In that case, we'll defeat everyone who stands in our way, you included.")
      0()
     EndIf()
     ShowMessageFace("mefist_fc1",0,0,2,46)
     ShowMessage("\\n<メフィスト>So you're changing your minds?\nIs that all right, Your Majesty?")
     ShowMessageFace("grandnoa_fc1",0,0,2,47)
     ShowMessage("\\n<グランドノア女王>It is. Win the Queen's Cup, and I shall permit you to join the investigation team.")
     0()
    404()
    ShowMessageFace("mefist_fc1",0,0,2,48)
    ShowMessage("\\n<メフィスト>As you wish, Your Majesty.\nI shall see you at the Colosseum three days hence.")
    PictureClear(5)
    PictureClear(6)
    Wait(60)
    250(bytes(0x04,0x08,0x6f,0x3a,0x0c,0x52,0x50,0x47,0x3a,0x3a,0x53,0x45,0x08,0x3a,0x0a,0x40,0x6e,0x61,0x6d,0x65,0x49,0x22,0x0d,0x6d,0x6f,0x6e,0x5f,0x77,0x61,0x72,0x70,0x06,0x3a,0x06,0x45,0x54,0x3a,0x0b,0x40,0x70,0x69,0x74,0x63,0x68,0x69,0x69,0x3a,0x0c,0x40,0x76,0x6f,0x6c,0x75,0x6d,0x65,0x69,0x55))
    ChangeSwitch(31,31,1)
    Wait(60)
    PictureDisplay(5,"80_grandnoa_st03",0,0,0,0,100,100,0,0)
    PictureMove(5,null,0,0,0,0,100,100,255,0,30,true)
    ShowMessageFace("grandnoa_fc1",2,0,2,49)
    ShowMessage("\\n<グランドノア女王>............")
    241(bytes(0x04,0x08,0x6f,0x3a,0x0d,0x52,0x50,0x47,0x3a,0x3a,0x42,0x47,0x4d,0x08,0x3a,0x0a,0x40,0x6e,0x61,0x6d,0x65,0x49,0x22,0x0c,0x63,0x61,0x73,0x74,0x6c,0x65,0x33,0x06,0x3a,0x06,0x45,0x54,0x3a,0x0c,0x40,0x76,0x6f,0x6c,0x75,0x6d,0x65,0x69,0x69,0x3a,0x0b,0x40,0x70,0x69,0x74,0x63,0x68,0x69,0x69))
    PictureDisplay(5,"80_grandnoa_st01",0,0,0,0,100,100,255,0)
    ShowMessageFace("grandnoa_fc1",0,0,2,50)
    ShowMessage("\\n<グランドノア女王>That concludes your audience.\nPlease do not fail to win the Queen's Cup.")
    ShowMessageFace("sara_fc1",0,0,2,51)
    ShowMessage("\\n<サラ>We promise that we shall be victorious.\nThank you for taking the time to see us.")
    ShowMessageFace("ruka_fc1",0,0,2,52)
    ShowMessage("\\n<ルカ>A martial arts tournament...")
    If(4,79,0)
     ShowMessageFace("nuruko_fc1",2,0,2,53)
     ShowMessage("\\n<ヌルコ>Kyu kyu...")
     0()
    EndIf()
    PictureClear(5)
    ShowMessageFace("",0,0,2,54)
    ShowMessage("Thus, we end up going along with Mephisto's proposal to enter the Queen's Cup at the Colosseum.")
    ChangeSwitch(100,100,0)
    EndEventProcessing()
    0()
   EndIf()
   If(1,1052,0,2,0)
    PictureDisplay(5,"80_grandnoa_st01",0,0,0,0,100,100,0,0)
    PictureMove(5,null,0,0,0,0,100,100,255,0,30,true)
    ShowMessageFace("grandnoa_fc1",0,0,2,55)
    ShowMessage("\\n<グランドノア女王>You need to first register for the tournament at the Colosseum's reception. After that, just win all your matches.")
    ShowMessageFace("grandnoa_fc1",0,0,2,56)
    ShowMessage("\\n<グランドノア女王>That concludes your audience.\nPlease do not fail to win the Queen's Cup.")
    PictureClear(5)
    EndEventProcessing()
    0()
   EndIf()
   If(1,1052,0,6,0)
    PictureDisplay(5,"80_grandnoa_st01",0,0,0,0,100,100,0,0)
    PictureMove(5,null,0,0,0,0,100,100,255,0,30,true)
    ShowMessageFace("grandnoa_fc1",0,0,2,57)
    ShowMessage("\\n<グランドノア女王>The Magical Academy is north of Grand Noah Palace. Please exercise the utmost caution there.")
    ShowMessageFace("grandnoa_fc1",0,0,2,58)
    ShowMessage("\\n<グランドノア女王>The academy will be filled with Mephisto's students. Even though they're still in training, they're very powerful mages.")
    ShowMessageFace("grandnoa_fc1",0,0,2,59)
    ShowMessage("\\n<グランドノア女王>I leave the rest to you...\nIn the meantime, I'll process the proper paperwork to have you added to the Esta investigation team.")
    PictureClear(5)
    EndEventProcessing()
    0()
   EndIf()
   If(1,1052,0,7,0)
    PictureDisplay(5,"80_grandnoa_st01",0,0,0,0,100,100,0,0)
    PictureMove(5,null,0,0,0,0,100,100,255,0,30,true)
    ShowMessageFace("grandnoa_fc1",0,0,2,60)
    ShowMessage("\\n<グランドノア女王>The Magical Academy is north of Grand Noah Palace. Please exercise the utmost caution there.")
    ShowMessageFace("grandnoa_fc1",0,0,2,61)
    ShowMessage("\\n<グランドノア女王>The academy will be filled with Mephisto's students. Even though they're still in training, they're very powerful mages.")
    ShowMessageFace("grandnoa_fc1",0,0,2,62)
    ShowMessage("\\n<グランドノア女王>I leave the rest to you...\nIn the meantime, I'll process the proper paperwork to have you added to the Esta investigation team.")
    PictureClear(5)
    EndEventProcessing()
    0()
   EndIf()
   If(1,1052,0,8,0)
    If(1,1062,0,4,2)
     PictureDisplay(5,"80_grandnoa_st01",0,0,0,0,100,100,0,0)
     PictureMove(5,null,0,0,0,0,100,100,255,0,30,true)
     ShowMessageFace("grandnoa_fc1",0,0,2,63)
     ShowMessage("\\n<グランドノア女王>I presume you still want to investigate Esta. As I promised before, the paperwork to add you to the investigation team has been completed.")
     ShowMessageFace("grandnoa_fc1",0,0,2,64)
     ShowMessage("\\n<グランドノア女王>By the time you return, our war council should have concluded. No doubt we could use your help with whatever our new strategy entails.")
     ShowMessageFace("grandnoa_fc1",0,0,2,65)
     ShowMessage("\\n<グランドノア女王>Godspeed, hero. I await good news from your investigation.")
     PictureClear(5)
     If(1,1054,0,6,2)
      ShowMessageFace("kerberos_fc1",0,0,2,66)
      ShowMessage("\\n<シーザー>Hey, you haven't forgotten about my mission, have you? You've gotta help me resolve the case of the missing Minotauros.")
      0()
     EndIf()
     If(1,1055,0,3,2)
      ShowMessageFace("durahan_fc1",0,0,2,67)
      ShowMessage("\\n<アーサー>If you have some time to spare, I'd appreciate your help with the incidents at Yamatai.")
      0()
     EndIf()
     PictureClear(5)
     EndEventProcessing()
     0()
    EndIf()
    If(1,1062,0,5,1)
     If(0,2156,1)
      ChangeSwitch(2156,2156,0)
      PictureDisplay(5,"80_grandnoa_st01",0,0,0,0,100,100,0,0)
      PictureMove(5,null,0,0,0,0,100,100,255,0,30,true)
      ShowMessageFace("grandnoa_fc1",0,0,2,68)
      ShowMessage("\\n<グランドノア女王>よくぞ戻ってきました、勇者ルカ。")
      ShowMessage("エスタの調査で、分かった事はありますか...？")
      ShowMessageFace("ruka_fc1",0,0,2,69)
      ShowMessage("\\n<ルカ>はい、実は――")
      ShowMessageFace("",0,0,2,70)
      ShowMessage("天使が絡んでいるらしい事を説明した...")
      ShowMessageFace("grandnoa_fc1",2,0,2,71)
      ShowMessage("\\n<グランドノア女王>なんと、天使が糸を引いていたとは...")
      ShowMessageFace("grandnoa_fc1",2,0,2,72)
      ShowMessage("\\n<グランドノア女王>...分かりました。")
      ShowMessage("貴重な報告に感謝します。")
      0()
     EndIf()
     If(1,1001,0,24,2)
      ShowMessageFace("grandnoa_fc1",0,0,2,73)
      ShowMessage("\\n<グランドノア女王>さて、グランゴルドへの反攻作戦の話ですが...")
      ShowMessage("もう少しばかり、準備と調整に時間を要します。")
      If(0,4,0)
       ShowMessageFace("alice_fc5",0,0,2,74)
       ShowMessage("\\n<アリス>ならばその間に、ウンディーネの泉に行くのはどうだ？")
       ShowMessage("四大精霊と契約を結ぶのも、目的の一つであったはず。")
       ShowMessageFace("alice_fc5",0,0,2,75)
       ShowMessage("\\n<アリス>ウンディーネの泉は、エスタから北にあるぞ。")
       ShowMessage("湖をぐるりと迂回する必要があるがな...")
       0()
      EndIf()
      If(0,5,0)
       ShowMessageFace("iriasu_fc4",2,0,2,76)
       ShowMessage("\\n<イリアス>ならば時間潰しに、ウンディーネの泉に行けばどうです？")
       ShowMessage("気は進みませんが、それも目的の一つなのでしょう？")
       ShowMessageFace("iriasu_fc4",2,0,2,77)
       ShowMessage("\\n<イリアス>ウンディーネの泉は、エスタから北。")
       ShowMessage("湖をぐるりと迂回する必要がありますが...")
       0()
      EndIf()
      If(1,1054,0,6,2)
       ShowMessageFace("kerberos_fc1",0,0,2,78)
       ShowMessage("\\n<シーザー>なあ、私からの依頼を忘れていないか？")
       ShowMessage("ミノタウロス失踪事件の解決も、手伝ってくれ。")
       0()
      EndIf()
      If(1,1055,0,3,2)
       ShowMessageFace("durahan_fc1",0,0,2,79)
       ShowMessage("\\n<アーサー>もし、手が空いているのならば...")
       ShowMessage("ヤマタイの件も、手助けを願いたいのだが。")
       0()
      EndIf()
      PictureClear(5)
      EndEventProcessing()
      0()
     EndIf()
     If(1,1001,0,25,0)
      If(1,1022,0,5,2)
       ShowMessageFace("grandnoa_fc1",2,0,2,80)
       ShowMessage("\\n<グランドノア女王>さて、グランゴルドへの反攻作戦ですが...")
       ShowMessage("同盟軍の一員であるサン・イリアの準備が整わないようですね。")
       ShowMessageFace("grandnoa_fc1",2,0,2,81)
       ShowMessage("\\n<グランドノア女王>向こうも、なにやら事情があるようです。")
       ShowMessage("よろしければ、あなた方に手助けをお願いできないでしょうか？")
       If(0,4,0)
        ShowMessageFace("alice_fc5",0,0,2,82)
        ShowMessage("\\n<アリス>仕方ない、サン・イリアに行ってみるか...")
        0()
       EndIf()
       If(0,5,0)
        ShowMessageFace("iriasu_fc4",2,0,2,83)
        ShowMessage("\\n<イリアス>仕方ありません、サン・イリアに行きましょうか...")
        0()
       EndIf()
       PictureClear(5)
       EndEventProcessing()
       0()
      EndIf()
      ChangeVariable(1052,1052,0,0,9)
      ChangeVariable(1063,1063,0,0,1)
      ShowMessageFace("grandnoa_fc1",0,0,2,84)
      ShowMessage("\\n<グランドノア女王>さて、グランゴルドへの反攻作戦の準備も整いました。")
      ShowMessage("以前に言った通り、あなた達にも手助けしてもらいます。")
      ShowMessageFace("grandnoa_fc1",0,0,2,85)
      ShowMessage("\\n<グランドノア女王>その作戦内容ですが――")
      PictureDisplay(6,"80_grandnoa_st01",0,0,-150,0,100,100,255,0)
      PictureDisplay(5,"80_mefist_st01",0,0,150,0,100,100,255,0)
      ShowMessageFace("mefist_fc1",0,0,2,86)
      ShowMessage("\\n<メフィスト>作戦の詳細に関しては、私が説明致しましょう。")
      ShowMessage("少し長くなりますので、部屋を移します。")
      If(0,6,0)
       ShowMessageFace("sonia_fc4",0,0,2,87)
       ShowMessage("\\n<ソニア>無礼なのは、相変わらずね...")
       0()
      Else()
       ShowMessageFace("ruka_fc1",0,0,2,88)
       ShowMessage("\\n<ルカ>............")
       0()
      EndIf()
      221()
      PictureClear(5)
      PictureClear(6)
      ChangeSwitch(31,31,0)
      TeleportPlayer(0,383,16,22,4,0)
      241(bytes(0x04,0x08,0x6f,0x3a,0x0d,0x52,0x50,0x47,0x3a,0x3a,0x42,0x47,0x4d,0x08,0x3a,0x0a,0x40,0x6e,0x61,0x6d,0x65,0x49,0x22,0x16,0x64,0x75,0x6e,0x67,0x65,0x6f,0x6e,0x5f,0x63,0x6f,0x6c,0x6f,0x73,0x73,0x65,0x75,0x6d,0x06,0x3a,0x06,0x45,0x54,0x3a,0x0c,0x40,0x76,0x6f,0x6c,0x75,0x6d,0x65,0x69,0x69,0x3a,0x0b,0x40,0x70,0x69,0x74,0x63,0x68,0x69,0x69))
      222()
      PictureDisplay(6,"80_grandnoa_st01",0,0,-150,0,100,100,0,0)
      PictureDisplay(5,"80_mefist_st01",0,0,150,0,100,100,0,0)
      PictureMove(6,null,0,0,-150,0,100,100,255,0,30,false)
      PictureMove(5,null,0,0,150,0,100,100,255,0,30,true)
      ShowMessageFace("mefist_fc1",0,0,2,89)
      ShowMessage("\\n<メフィスト>この作戦は、大戦に終止符を打つ壮大なもの...")
      ShowMessage("三大国同盟軍はもちろん、あらゆる勢力を総動員します。")
      If(0,4,0)
       ShowMessageFace("alice_fc5",0,0,2,90)
       ShowMessage("\\n<アリス>その「あらゆる勢力」とやらに、我々も含まれるわけだな。")
       0()
      EndIf()
      If(0,5,0)
       ShowMessageFace("iriasu_fc4",2,0,2,91)
       ShowMessage("\\n<イリアス>その「あらゆる勢力」に、我々も含まれるわけですね。")
       0()
      EndIf()
      ShowMessageFace("mefist_fc1",0,0,2,92)
      ShowMessage("\\n<メフィスト>ええ...そして、あなた達こそが作戦の主軸となるのです。")
      ShowMessage("ゆえに、心して聞いて下さいね。")
      ShowMessageFace("ruka_fc1",0,0,2,93)
      ShowMessage("\\n<ルカ>僕達が、主軸...！？")
      ShowMessageFace("mefist_fc1",0,0,2,94)
      ShowMessage("\\n<メフィスト>まずは、我が国、サン・イリア、サバサの三国同盟軍が動きます。")
      ShowMessage("大規模な決戦意図は、当然ながら敵にも伝わるでしょう。")
      ShowMessageFace("mefist_fc1",0,0,2,95)
      ShowMessage("\\n<メフィスト>前線のゴルド砦から、敵の主力軍が迎撃に現れる――")
      ShowMessage("いえ、釣り出されてしまうというべきですね。")
      If(0,4,0)
       ShowMessageFace("alice_fc5",0,0,2,96)
       ShowMessage("\\n<アリス>つまり、三国同盟軍は陽動か...")
       ShowMessage("オトリにしては、大盤振る舞いだな。")
       0()
      EndIf()
      If(0,5,0)
       ShowMessageFace("iriasu_fc4",2,0,2,97)
       ShowMessage("\\n<イリアス>三国同盟軍を、丸ごと陽動に費やすとは...")
       ShowMessage("ずいぶん、大胆な作戦ですね。")
       0()
      EndIf()
      ShowMessageFace("mefist_fc1",0,0,2,98)
      ShowMessage("\\n<メフィスト>ええ、敵の目は前線に注がれるでしょう。")
      ShowMessage("どう見ても、全戦力を動員し決戦を挑んできたのですから...")
      ShowMessageFace("mefist_fc1",0,0,2,99)
      ShowMessage("\\n<メフィスト>その隙を突き、あなた方はゴルド砦に潜入。")
      ShowMessage("砦を抜けて、敵の領地へと入り込むのです。")
      If(0,6,0)
       ShowMessageFace("sonia_fc3",2,0,2,100)
       ShowMessage("\\n<ソニア>私達が、単独で敵地に潜入！？")
       ShowMessage("それ、無茶なんじゃない！？")
       0()
      Else()
       ShowMessageFace("ruka_fc1",0,0,2,101)
       ShowMessage("\\n<ルカ>僕達が、単独で敵地に潜入だって！？")
       0()
      EndIf()
      ShowMessageFace("grandnoa_fc1",2,0,2,102)
      ShowMessage("\\n<グランドノア女王>当然ながら、こちらも全力で支援を行います。")
      ShowMessage("敵地にも、我が方の工作員が潜り込んでいますので。")
      ShowMessageFace("mefist_fc1",0,0,2,103)
      ShowMessage("\\n<メフィスト>ええ、女王陛下のおっしゃる通り...")
      ShowMessage("あなた達を捨て石にするつもりなど、全くありませんよ。")
      ShowMessageFace("mefist_fc1",0,0,2,104)
      ShowMessage("\\n<メフィスト>あなた達が、ゴルド砦を抜けた後は...")
      ShowMessage("そのまま、首都であるグランゴルドに向かってもらいます。")
      ShowMessageFace("mefist_fc1",0,0,2,105)
      ShowMessage("\\n<メフィスト>そこまでの道のりも、なかなかに険しいのですが...")
      ShowMessage("まずはゴルド砦を抜けてすぐ近くにある町、ゴッダールへ。")
      ShowMessageFace("mefist_fc1",0,0,2,106)
      ShowMessage("\\n<メフィスト>しかる後、ゴッダールに潜む我が方の工作員に接触して下さい。")
      ShowMessage("その人物は酒場にいますが、店主に特別な合図を送る事で――")
      ShowMessageFace("ruka_fc1",0,0,2,107)
      ShowMessage("\\n<ルカ>ちょ、ちょっと待って...")
      ShowMessage("メモっていい？")
      If(0,4,0)
       ShowMessageFace("alice_fc5",2,0,2,108)
       ShowMessage("\\n<アリス>極秘潜入任務で、メモを取るバカがいるか。")
       ShowMessage("細かい流れは、余がしっかり聞いておいてやる。")
       0()
      EndIf()
      If(0,5,0)
       ShowMessageFace("iriasu_fc4",2,0,2,109)
       ShowMessage("\\n<イリアス>極秘潜入任務でメモなど、アホですか...")
       ShowMessage("細かい流れは、私が把握しておきますので心配なく。")
       0()
      EndIf()
      ShowMessageFace("",0,0,2,110)
      ShowMessage("メフィストは、作戦の細かな流れを説明した――")
      ShowMessage("工作員と接触しつつ、首都グランゴルドをめざすようだ。")
      If(0,4,0)
       ShowMessageFace("alice_fc5",0,0,2,111)
       ShowMessage("\\n<アリス>そして、グランゴルドに着いた後だが...")
       ShowMessage("我々は、どうすればいいのだ？")
       0()
      EndIf()
      If(0,5,0)
       ShowMessageFace("iriasu_fc4",2,0,2,112)
       ShowMessage("\\n<イリアス>そして、グランゴルドに着いた後はどうするのです？")
       ShowMessage("我々だけで、グランゴルド城に攻め込めとでも？")
       0()
      EndIf()
      ShowMessageFace("mefist_fc1",0,0,2,113)
      ShowMessage("\\n<メフィスト>おそらく、グランゴルド王を惑わしていると思われる...")
      ShowMessage("クィーンアントを討って下さい。")
      ShowMessageFace("grandnoa_fc1",0,0,2,114)
      ShowMessage("\\n<グランドノア女王>あなた達の任務は、暗殺に非常に近いものです。")
      ShowMessage("普通の戦争ならば、こんな手は使うべきではないでしょう...")
      If(0,4,0)
       ShowMessageFace("alice_fc5",0,0,2,115)
       ShowMessage("\\n<アリス>当然だな...近代戦において、要人暗殺など下策の下策。")
       ShowMessage("敵の戦意は高まり、戦争が泥沼化するだけだ。")
       0()
      EndIf()
      If(0,5,0)
       ShowMessageFace("iriasu_fc4",2,0,2,116)
       ShowMessage("\\n<イリアス>当然の話ですね...近代戦において、要人暗殺など悪手の極み。")
       ShowMessage("敵の戦意は高まり、戦争の泥沼化を招きます。")
       0()
      EndIf()
      ShowMessageFace("grandnoa_fc1",0,0,2,117)
      ShowMessage("\\n<グランドノア女王>しかし今回の大戦は、普通の戦争とは異なります...")
      ShowMessage("魔王が裏で糸を引いているという、特有の事情があるのです。")
      ShowMessageFace("grandnoa_fc1",0,0,2,118)
      ShowMessage("\\n<グランドノア女王>その糸を断つというのが、この作戦の目的。")
      ShowMessage("作戦の成否は、あなた達の腕にかかっているのですよ。")
      If(0,6,0)
       ShowMessageFace("sonia_fc4",0,0,2,119)
       ShowMessage("\\n<ソニア>うわぁ、すごいプレッシャー...")
       ShowMessage("私達が失敗したら、グランドノアも大ピンチなのよね...")
       0()
      Else()
       ShowMessageFace("ruka_fc1",0,0,2,120)
       ShowMessage("\\n<ルカ>それは、すごいプレッシャーだね...")
       0()
      EndIf()
      ShowMessageFace("mefist_fc1",0,0,2,121)
      ShowMessage("\\n<メフィスト>作戦が失敗した場合、あなた達は我が国に関係ないと突っぱねます。")
      ShowMessage("ただの旅人が勝手にやったテロとなりますので、ご心配なく。")
      If(0,6,0)
       ShowMessageFace("sonia_fc3",2,0,2,122)
       ShowMessage("\\n<ソニア>えっ！？")
       0()
      Else()
       ShowMessageFace("ruka_fc1",0,0,2,123)
       ShowMessage("\\n<ルカ>えっ！？")
       0()
      EndIf()
      ShowMessageFace("grandnoa_fc1",0,0,2,124)
      ShowMessage("\\n<グランドノア女王>しかし、そうなれば...")
      ShowMessage("囮であった三国同盟軍が、力押しの決戦を挑むしかなくなります。")
      ShowMessageFace("grandnoa_fc1",0,0,2,125)
      ShowMessage("\\n<グランドノア女王>大戦が終わるまで、どれだけの命が失われるか...")
      ShowMessage("もはや、見当もつきません。")
      If(0,4,0)
       ShowMessageFace("alice_fc5",0,0,2,126)
       ShowMessage("\\n<アリス>我々の存在は奇貨であり、失敗すれば普通に決戦...か。")
       ShowMessage("余も為政者、そのくらいの政治判断は理解している。")
       ShowMessageFace("alice_fc5",2,0,2,127)
       ShowMessage("\\n<アリス>だが、敵地での支援はしっかり行ってもらう。")
       ShowMessage("早い段階で切り捨てるようなら、我々も命は張れんぞ。")
       0()
      EndIf()
      If(0,5,0)
       ShowMessageFace("iriasu_fc4",2,0,2,128)
       ShowMessage("\\n<イリアス>我々が失敗すれば、普通に戦争を続ける...という事ですか。")
       ShowMessage("まあ、それくらいの政治判断は織り込み済みでしょうね。")
       ShowMessageFace("iriasu_fc4",7,0,2,129)
       ShowMessage("\\n<イリアス>ですが、敵地での支援はしっかりやってもらいますよ。")
       ShowMessage("適当なところで切り捨てようなど、断じて許しません。")
       0()
      EndIf()
      ShowMessageFace("mefist_fc1",0,0,2,130)
      ShowMessage("\\n<メフィスト>ええ、それは必ず...")
      ShowMessage("人員や物資の補給も、作戦の各段階で行う事を約束します。")
      ShowMessageFace("mefist_fc1",0,0,2,131)
      ShowMessage("\\n<メフィスト>それではまず、ゴルド砦への侵入ですね。")
      ShowMessage("作戦の第一段階にあたり、助っ人を用意しました。")
      ShowMessageFace("mefist_fc1",0,0,2,132)
      ShowMessage("\\n<メフィスト>リマ村の廃墟にて、その助っ人と合流して下さい。")
      ShowMessage("エスタから道に沿って北西に進めば、リマ村に着くはずです。")
      If(0,6,0)
       ShowMessageFace("sonia_fc2",2,0,2,133)
       ShowMessage("\\n<ソニア>リマ村って...数年前、ゴルド軍に滅ぼされた村よね。")
       ShowMessage("村人の多くが虐殺されたって話だけど...")
       0()
      Else()
       ShowMessageFace("ruka_fc1",0,0,2,134)
       ShowMessage("\\n<ルカ>リマ村って...数年前、ゴルド軍に滅ぼされた村だよね。")
       ShowMessage("村人の多くが虐殺されたって話だけど...")
       0()
      EndIf()
      ShowMessageFace("grandnoa_fc1",2,0,2,135)
      ShowMessage("\\n<グランドノア女王>ええ...その村の光景、目に焼き付けておいて下さい。")
      ShowMessage("魔王に操られたゴルド軍は、あそこまでの蛮行を為すのです。")
      ShowMessageFace("grandnoa_fc1",2,0,2,136)
      ShowMessage("\\n<グランドノア女王>あの悲劇が繰り返される前に、")
      ShowMessage("グランゴルドを止めねばなりません。")
      ShowMessageFace("grandnoa_fc1",2,0,2,137)
      ShowMessage("\\n<グランドノア女王>全ては、あなた達の働きにかかっているのです...")
      ShowMessage("それをお忘れなきよう。")
      ShowMessageFace("ruka_fc1",0,0,2,138)
      ShowMessage("\\n<ルカ>分かりました、お任せを！")
      ShowMessageFace("",0,0,2,139)
      ShowMessage("こうして、作戦の説明は終わった。")
      ShowMessage("まずは、エスタ北西のリマ村で助っ人と合流だ――")
      If(0,4,0)
       ShowMessageFace("alice_fc5",0,0,2,140)
       ShowMessage("\\n<アリス>ところで、その助っ人とは何者なのだ？")
       ShowMessage("足を引っ張るような程度の者ならば困るぞ...")
       0()
      EndIf()
      If(0,5,0)
       ShowMessageFace("iriasu_fc4",2,0,2,141)
       ShowMessage("\\n<イリアス>ところで、その助っ人とは何者なのです？")
       ShowMessage("足を引っ張られては困るのですが...")
       0()
      EndIf()
      ShowMessageFace("mefist_fc1",0,0,2,142)
      ShowMessage("\\n<メフィスト>心配はありません、文句のない猛者ですよ。")
      ShowMessage("それは会ってみれば分かる事です...")
      If(0,6,0)
       ShowMessageFace("sonia_fc2",2,0,2,143)
       ShowMessage("\\n<ソニア>その言い方...ひょっとして、私達の知ってる人？")
       0()
      EndIf()
      ShowMessageFace("mefist_fc1",0,0,2,144)
      ShowMessage("\\n<メフィスト>ふふっ...そのはずです。")
      ShowMessageFace("ruka_fc1",0,0,2,145)
      ShowMessage("\\n<ルカ>分かりました...")
      ShowMessage("それじゃあ、行こう！")
      PictureClear(5)
      PictureClear(6)
      ShowMessageFace("",0,0,2,146)
      ShowMessage("まずはエスタ北西のリマ村に行き、助っ人に会う事。")
      ShowMessage("それが、グランゴルドに対する反攻作戦の狼煙となる。")
      ShowMessageFace("",0,0,2,147)
      ShowMessage("入念に準備し、作戦に赴こう。")
      ShowMessage("僕達の肩には、世界の平和がかかっているのだ――")
      221()
      ChangeSwitch(31,31,1)
      TeleportPlayer(0,382,39,12,2,0)
      222()
      EndEventProcessing()
      0()
     EndIf()
     0()
    EndIf()
    0()
   EndIf()
   If(1,1052,0,9,1)
    If(1,1063,0,1,0)
     PictureDisplay(5,"80_grandnoa_st01",0,0,0,0,100,100,0,0)
     PictureMove(5,null,0,0,0,0,100,100,255,0,30,true)
     ShowMessageFace("grandnoa_fc1",0,0,2,148)
     ShowMessage("\\n<グランドノア女王>すでに同盟軍は出陣の準備を始めています。")
     ShowMessage("あなた達が協力者に接触する事が、進軍開始の合図。")
     ShowMessageFace("grandnoa_fc1",0,0,2,149)
     ShowMessage("\\n<グランドノア女王>この作戦、あなた達の働きにかかっています。")
     ShowMessage("必ずや、グランゴルドを操る魔王の企てを破るのです。")
     PictureClear(5)
     EndEventProcessing()
     0()
    EndIf()
    If(1,1063,0,2,1)
     PictureDisplay(5,"80_grandnoa_st01",0,0,0,0,100,100,0,0)
     PictureMove(5,null,0,0,0,0,100,100,255,0,30,true)
     ShowMessageFace("grandnoa_fc1",0,0,2,150)
     ShowMessage("\\n<グランドノア女王>おや、どうしました？")
     ShowMessage("何か計画に不備でもあったのですか...？")
     ShowMessageFace("grandnoa_fc1",0,0,2,151)
     ShowMessage("\\n<グランドノア女王>この作戦、あなた達の働きにかかっています。")
     ShowMessage("必ずや、グランゴルドを操る魔王の企てを破るのです。")
     PictureClear(5)
     EndEventProcessing()
     0()
    EndIf()
    0()
   EndIf()
   0()
  EndIf()
  If(1,1001,0,26,0)
   PictureDisplay(5,"80_grandnoa_st01",0,0,0,0,100,100,0,0)
   PictureMove(5,null,0,0,0,0,100,100,255,0,30,true)
   ShowMessageFace("grandnoa_fc1",2,0,2,152)
   ShowMessage("\\n<グランドノア女王>グランゴルド王はあなた達に依頼したい事があるとか。")
   ShowMessage("なにやら、領内に妖魔の不審な動きがあるそうです。")
   ShowMessageFace("grandnoa_fc1",0,0,2,153)
   ShowMessage("\\n<グランドノア女王>こちらで何かあれば、メフィストを通じて連絡します。")
   ShowMessage("どうか、世界のため力を尽くして下さいね。")
   PictureClear(5)
   EndEventProcessing()
   0()
  EndIf()
  If(1,1001,0,27,1)
   If(1,1001,0,28,2)
    PictureDisplay(5,"80_grandnoa_st01",0,0,0,0,100,100,0,0)
    PictureMove(5,null,0,0,0,0,100,100,255,0,30,true)
    ShowMessageFace("grandnoa_fc1",2,0,2,154)
    ShowMessage("\\n<グランドノア女王>魔王の宣戦布告以来、特に大きな動きはありません。")
    ShowMessage("しかし、いつまでも平穏が続くとも思えませんね...")
    ShowMessageFace("grandnoa_fc1",0,0,2,155)
    ShowMessage("\\n<グランドノア女王>こちらで何かあれば、メフィストを通じて連絡します。")
    ShowMessage("どうか、世界のため力を尽くして下さいね。")
    PictureClear(5)
    EndEventProcessing()
    0()
   EndIf()
   0()
  EndIf()
  If(1,1001,0,29,0)
   PictureDisplay(5,"80_grandnoa_st01",0,0,0,0,100,100,0,0)
   PictureMove(5,null,0,0,0,0,100,100,255,0,30,true)
   ShowMessageFace("grandnoa_fc1",0,0,2,156)
   ShowMessage("\\n<グランドノア女王>今も、各国の首都が危機に晒されています。")
   ShowMessage("勇者ルカ...救援をお願いしますね。")
   PictureClear(5)
   EndEventProcessing()
   0()
  EndIf()
  If(1,1001,0,30,0)
   If(1,1070,0,1,0)
    PictureDisplay(5,"80_grandnoa_st01",0,0,0,0,100,100,0,0)
    PictureMove(5,null,0,0,0,0,100,100,255,0,30,true)
    ShowMessageFace("grandnoa_fc1",2,0,2,157)
    ShowMessage("\\n<グランドノア女王>我が国は、エルフと要請の混成軍に攻撃を受けています。")
    ShowMessage("彼女たちの本拠地は、サバサのはるか南西にある妖精の島...")
    ShowMessageFace("grandnoa_fc1",2,0,2,158)
    ShowMessage("\\n<グランドノア女王>クィーンエルフを討伐すれば、攻撃も止むはず。")
    ShowMessage("勇者ルカ、あなたの働きに期待していますよ。")
    PictureClear(5)
    EndEventProcessing()
    0()
   EndIf()
   If(1,1070,0,2,0)
    ChangeVariable(1070,1070,0,0,3)
    ShowMessageFace("",0,0,2,159)
    ShowMessage("ルカ達は、クィーンエルフとのやり取りを女王に報告した...")
    PictureDisplay(5,"80_grandnoa_st01",0,0,0,0,100,100,0,0)
    PictureMove(5,null,0,0,0,0,100,100,255,0,30,true)
    ShowMessageFace("grandnoa_fc1",2,0,2,160)
    ShowMessage("\\n<グランドノア女王>そうですか...彼女達は、人間に怒りを抱いていたのですね。")
    ShowMessage("思えば我々は、追われる者に対して無自覚過ぎたのかもしれません。")
    ShowMessageFace("grandnoa_fc1",2,0,2,161)
    ShowMessage("\\n<グランドノア女王>ともあれ、ここから先は政治で解決すべき問題ですね。")
    ShowMessage("この一件、今後はエルフ達と語り合い解決を図る事とします。")
    ShowMessageFace("grandnoa_fc1",0,0,2,162)
    ShowMessage("\\n<グランドノア女王>それにしても、素晴らしい活躍でしたね...")
    ShowMessage("勇者ルカ、我が国を救ってくれたお礼としてこれを授けましょう。")
    250(bytes(0x04,0x08,0x6f,0x3a,0x0c,0x52,0x50,0x47,0x3a,0x3a,0x53,0x45,0x08,0x3a,0x0a,0x40,0x6e,0x61,0x6d,0x65,0x49,0x22,0x0a,0x49,0x74,0x65,0x6d,0x31,0x06,0x3a,0x06,0x45,0x54,0x3a,0x0b,0x40,0x70,0x69,0x74,0x63,0x68,0x69,0x69,0x3a,0x0c,0x40,0x76,0x6f,0x6c,0x75,0x6d,0x65,0x69,0x55))
    ChangeInventory_Item(637,0,0,1)
    ChangeSwitch(2311,2311,0)
    If(0,4,0)
     ShowMessageFace("alice_fc5",1,0,2,163)
     ShowMessage("\\n<アリス>これは、王家に伝わる最上級職への転職アイテムのひとつ...")
     ShowMessage("これで料理人やメイドなど、様々な専門職の最上級職に就けるな。")
     0()
    EndIf()
    If(0,5,0)
     ShowMessageFace("iriasu_fc4",1,0,2,164)
     ShowMessage("\\n<イリアス>これは、王家に伝わる最上級職への転職アイテムのひとつ...")
     ShowMessage("これで料理人やメイドなど、様々な専門職の最上級職に就けますね。")
     0()
    EndIf()
    ChangeVariable(1079,1079,0,0,1)
    RunCommonEvent(329)
    If(0,2274,0)
     EndEventProcessing()
     0()
    EndIf()
    ShowMessageFace("grandnoa_fc1",0,0,2,165)
    ShowMessage("\\n<グランドノア女王>他国を脅かす女王も、討伐をお願いします。")
    ShowMessage("魔王軍の力を削がねば、我らに勝機はありません...")
    PictureClear(5)
    EndEventProcessing()
    0()
   EndIf()
   If(1,1070,0,3,1)
    PictureDisplay(5,"80_grandnoa_st01",0,0,0,0,100,100,0,0)
    PictureMove(5,null,0,0,0,0,100,100,255,0,30,true)
    ShowMessageFace("grandnoa_fc1",0,0,2,166)
    ShowMessage("\\n<グランドノア女王>他国を脅かす女王も、討伐をお願いします。")
    ShowMessage("魔王軍の力を削がねば、我らに勝機はありません...")
    PictureClear(5)
    EndEventProcessing()
    0()
   EndIf()
   0()
  EndIf()
  If(1,1001,0,31,1)
   PictureDisplay(5,"80_grandnoa_st01",0,0,0,0,100,100,0,0)
   PictureMove(5,null,0,0,0,0,100,100,255,0,30,true)
   ShowMessageFace("grandnoa_fc1",1,0,2,167)
   ShowMessage("\\n<グランドノア女王>魔王の討伐、どうかお願いいたします。")
   ShowMessage("魔王軍の侵攻は、グランドノア全軍をもって対処しますので...")
   PictureClear(5)
   EndEventProcessing()
   0()
  EndIf()
  0()



EVENT   5
 PAGE   1
  // condition: switch 31 is ON
  0()
 PAGE   2
  // condition: variable 1052 >= 8
  If(1,1063,0,0,0)
   If(1,1061,0,0,0)
    PictureDisplay(5,"80_mefist_st01",0,0,0,0,100,100,0,0)
    PictureMove(5,null,0,0,0,0,100,100,255,0,30,true)
    ShowMessageFace("mefist_fc1",0,0,2,1)
    ShowMessage("\\n<メフィスト>Plansect Village is a settlement of monsters in the forest west of here.")
    ShowMessageFace("mefist_fc1",0,0,2,2)
    ShowMessage("\\n<メフィスト>There appears to be significant trouble going on there. The village has split into two warring factions.")
    ShowMessageFace("mefist_fc1",0,0,2,3)
    ShowMessage("\\n<メフィスト>Please put a stop to the fighting in Plansect. Having a source of trouble in our domain is one more chink in our armor that other countries could exploit...")
    PictureClear(5)
    EndEventProcessing()
    0()
   EndIf()
   If(1,1061,0,1,1)
    PictureDisplay(5,"80_mefist_st01",0,0,0,0,100,100,0,0)
    PictureMove(5,null,0,0,0,0,100,100,255,0,30,true)
    ShowMessageFace("mefist_fc1",0,0,2,4)
    ShowMessage("\\n<メフィスト>You put down the civil war in Plansect? Rather impressive...")
    ShowMessageFace("mefist_fc1",0,0,2,5)
    ShowMessage("\\n<メフィスト>Black Alice is stirring up trouble with radicals all over the world, so keep a lookout...")
    PictureClear(5)
    EndEventProcessing()
    0()
   EndIf()
   0()
  EndIf()
  If(1,1063,0,1,0)
   PictureDisplay(5,"80_mefist_st01",0,0,0,0,100,100,0,0)
   PictureMove(5,null,0,0,0,0,100,100,255,0,30,true)
   ShowMessageFace("mefist_fc1",0,0,2,6)
   ShowMessage("\\n<メフィスト>それではまず、ゴルド砦への侵入ですね。")
   ShowMessage("作戦の第一段階にあたり、助っ人を用意しました。")
   ShowMessageFace("mefist_fc1",0,0,2,7)
   ShowMessage("\\n<メフィスト>リマ村の廃墟にて、その助っ人と合流して下さい。")
   ShowMessage("エスタから道に沿って北西に進めば、リマ村に着くはずです。")
   PictureClear(5)
   EndEventProcessing()
   0()
  EndIf()
  If(1,1063,0,2,0)
   PictureDisplay(5,"80_mefist_st01",0,0,0,0,100,100,0,0)
   PictureMove(5,null,0,0,0,0,100,100,255,0,30,true)
   ShowMessageFace("mefist_fc1",0,0,2,8)
   ShowMessage("\\n<メフィスト>それではまず、ゴルド砦への侵入ですね。")
   ShowMessage("作戦の第一段階にあたり、助っ人を用意しました。")
   ShowMessageFace("mefist_fc1",0,0,2,9)
   ShowMessage("\\n<メフィスト>リマ村の廃墟にて、その助っ人と合流して下さい。")
   ShowMessage("エスタから道に沿って北西に進めば、リマ村に着くはずです。")
   PictureClear(5)
   EndEventProcessing()
   0()
  EndIf()
  If(1,1063,0,3,1)
   PictureDisplay(5,"80_mefist_st01",0,0,0,0,100,100,0,0)
   PictureMove(5,null,0,0,0,0,100,100,255,0,30,true)
   ShowMessageFace("mefist_fc1",0,0,2,10)
   ShowMessage("\\n<メフィスト>おや、なぜ戻ってきたのです...？")
   ShowMessage("手筈通り、作戦を進めなさい。")
   If(0,6,0)
    ShowMessageFace("sonia_fc1",5,0,2,11)
    ShowMessage("\\n<ソニア>もう、感じ悪いなぁ...")
    0()
   EndIf()
   PictureClear(5)
   EndEventProcessing()
   0()
  EndIf()
  0()
 PAGE   3
  // condition: variable 1063 >= 9
  0()



EVENT   6
 PAGE   1
  // condition: switch 2268 is ON
  241(bytes(0x04,0x08,0x6f,0x3a,0x0d,0x52,0x50,0x47,0x3a,0x3a,0x42,0x47,0x4d,0x08,0x3a,0x0a,0x40,0x6e,0x61,0x6d,0x65,0x49,0x22,0x0a,0x6b,0x69,0x6b,0x69,0x32,0x06,0x3a,0x06,0x45,0x54,0x3a,0x0c,0x40,0x76,0x6f,0x6c,0x75,0x6d,0x65,0x69,0x69,0x3a,0x0b,0x40,0x70,0x69,0x74,0x63,0x68,0x69,0x69))
  ChangeSelfSwitch("A",0)
  PictureDisplay(5,"80_grandnoa_st01",0,0,0,0,100,100,0,0)
  PictureMove(5,null,0,0,0,0,100,100,255,0,30,true)
  ShowMessageFace("grandnoa_fc1",2,0,2,1)
  ShowMessage("\\n<グランドノア女王>Mephisto, is it true that you were secretly serving the Monster Lord?")
  PictureDisplay(6,"80_grandnoa_st01",0,0,-150,0,100,100,255,0)
  PictureDisplay(5,"80_mefist_st01",0,0,150,0,100,100,255,0)
  ShowMessageFace("mefist_fc1",0,0,2,2)
  ShowMessage("\\n<メフィスト>...yes, that is correct. I took the position of magical advisor to Grand Noah at the Monster Lord's command.")
  ShowMessageFace("grandnoa_fc1",2,0,2,3)
  ShowMessage("\\n<グランドノア女王>You've been deceiving me, and the entire country, all this time?")
  ShowMessageFace("mefist_fc1",0,0,2,4)
  ShowMessage("\\n<メフィスト>Truthfully, I have served Grand Noah to the utmost of my abilities.")
  ShowMessageFace("mefist_fc1",0,0,2,5)
  ShowMessage("\\n<メフィスト>The orders I received from the Monster Lord were to assist Grand Noah and use my intellect to guide them to victory.")
  If(0,6,0)
   ShowMessageFace("sonia_fc1",5,0,2,6)
   ShowMessage("\\n<ソニア>In other words, the Monster Lord wanted you to help here? So you mean you've really been devoted to Grand Noah the whole time?")
   0()
  Else()
   ShowMessageFace("ruka_fc1",0,0,2,7)
   ShowMessage("\\n<ルカ>In other words, the Monster Lord wanted you to help here? So you mean you've really been devoted to Grand Noah the whole time?")
   0()
  EndIf()
  ShowMessageFace("mefist_fc1",0,0,2,8)
  ShowMessage("\\n<メフィスト>Correct. I'm not lying when I say my services to Grand Noah have not caused you one bit of harm.")
  ShowMessageFace("grandnoa_fc1",2,0,2,9)
  ShowMessage("\\n<グランドノア女王>...I believe you.\nIt's certainly true that we've managed to stay relatively safe thanks to your efforts.")
  ShowMessageFace("grandnoa_fc1",2,0,2,10)
  ShowMessage("\\n<グランドノア女王>Let's move on to another subject.\nI've heard that those three succubus sisters were responsible for the chaos in Sabasa.")
  ShowMessageFace("grandnoa_fc1",2,0,2,11)
  ShowMessage("\\n<グランドノア女王>If they're cooperating with the Monster Lord, does that mean she wanted them to corrupt the Queen of Sabasa?")
  ShowMessageFace("mefist_fc1",0,0,2,12)
  ShowMessage("\\n<メフィスト>Yes, that is correct.\nThe Monster Lord and the three sisters are allies.")
  ShowMessageFace("mefist_fc1",0,0,2,13)
  ShowMessage("\\n<メフィスト>They aren't taking orders from the Monster Lord, but their interests are perfectly aligned.")
  If(0,4,0)
   ShowMessageFace("alice_fc5",3,0,2,14)
   ShowMessage("\\n<アリス>My mother... The present Monster Lord and the three sisters certainly look equally powerful. But what are their motives for meddling with Sabasa and Grand Noah...")
   0()
  EndIf()
  If(0,5,0)
   ShowMessageFace("iriasu_fc4",2,0,2,15)
   ShowMessage("\\n<イリアス>The present Monster Lord and the three sisters certainly look equally powerful. I cannot fathom what role their infiltrations into Sabasa and Grand Noah play in their larger schemes, however.")
   0()
  EndIf()
  If(4,529,0)
   ShowMessageFace("sara_fc1",4,0,2,16)
   ShowMessage("\\n<サラ>I'd love to know too...")
   0()
  EndIf()
  ShowMessageFace("grandnoa_fc1",2,0,2,17)
  ShowMessage("\\n<グランドノア女王>Moreover, what is their intent behind aiding Grand Noah while hampering Sabasa? What is the Monster Lord planning?")
  ShowMessageFace("mefist_fc1",0,0,2,18)
  ShowMessage("\\n<メフィスト>...I do not know.")
  ShowMessageFace("mefist_fc1",0,0,2,19)
  ShowMessage("\\n<メフィスト>After all, if you were working under the assumption that I could fall into enemy hands, would you have let me in on the entire plan?")
  ShowMessageFace("grandnoa_fc1",2,0,2,20)
  ShowMessage("\\n<グランドノア女王>I have a hard time believing that, but fine. One last question.")
  ShowMessageFace("grandnoa_fc1",2,0,2,21)
  ShowMessage("\\n<グランドノア女王>Is the Monster Lord manipulating Grangold behind the scenes as well?")
  ShowMessageFace("mefist_fc1",2,0,2,22)
  ShowMessage("\\n<メフィスト>............")
  ShowMessageFace("mefist_fc1",0,0,2,23)
  ShowMessage("\\n<メフィスト>...yes.\nI've heard that the Monster Lord has full control over the country.")
  If(0,4,0)
   ShowMessageFace("alice_fc6",0,0,2,24)
   ShowMessage("\\n<アリス>What!? Grangold is already my mother's...")
   0()
  EndIf()
  If(0,5,0)
   ShowMessageFace("iriasu_fc4",5,0,2,25)
   ShowMessage("\\n<イリアス>You have got to be kidding me!\nEven Grangold is under her control?")
   0()
  EndIf()
  If(0,6,0)
   ShowMessageFace("sonia_fc1",5,0,2,26)
   ShowMessage("\\n<ソニア>Hold on, that doesn't make any sense!\nYou mean to tell me that the Monster Lord is behind Grangold AND Grand Noah?")
   ShowMessageFace("sonia_fc1",5,0,2,27)
   ShowMessage("\\n<ソニア>Why would she steer both countries into conflict? Is she trying to cause a world war!?")
   If(0,4,0)
    ShowMessageFace("alice_fc5",2,0,2,28)
    ShowMessage("\\n<アリス>I'd love to hear the answer to that, Mephisto. If the goal was to have both countries crush one another, that's going too far.")
    0()
   EndIf()
   If(0,5,0)
    ShowMessageFace("iriasu_fc4",7,0,2,29)
    ShowMessage("\\n<イリアス>The meathead brings up a good point for once. Can you answer her, Mephisto?")
    0()
   EndIf()
   0()
  Else()
   ShowMessageFace("ruka_fc1",0,0,2,30)
   ShowMessage("\\n<ルカ>So why are Grand Noah and Grangold at war if the Monster Lord is manipulating both countries?")
   If(0,4,0)
    ShowMessageFace("alice_fc5",2,0,2,31)
    ShowMessage("\\n<アリス>I'd love to hear the answer to that, Mephisto. If the goal was to have both countries crush one another, that's going too far.")
    0()
   EndIf()
   If(0,5,0)
    ShowMessageFace("iriasu_fc4",7,0,2,32)
    ShowMessage("\\n<イリアス>What's going on here, Mephisto? I would love to hear your explanation.")
    0()
   EndIf()
   0()
  EndIf()
  ShowMessageFace("mefist_fc1",0,0,2,33)
  ShowMessage("\\n<メフィスト>Ask not the sparrow how the eagle soars. The Monster Lord's reasons are as deep as the sea.")
  If(0,4,0)
   ShowMessageFace("alice_fc5",3,0,2,34)
   ShowMessage("\\n<アリス>So you won't tell us. Disappointing.")
   0()
  EndIf()
  If(0,5,0)
   ShowMessageFace("iriasu_fc4",2,0,2,35)
   ShowMessage("\\n<イリアス>Just stupid quotations, no answers.")
   0()
  EndIf()
  ShowMessageFace("grandnoa_fc1",2,0,2,36)
  ShowMessage("\\n<グランドノア女王>Questioning her any further is pointless. As for what to do with her--")
  If(0,6,0)
   ShowMessageFace("sonia_fc2",2,0,2,37)
   ShowMessage("\\n<ソニア>Execution...?\nThat seems a little harsh...")
   0()
  EndIf()
  If(4,159,0)
   ShowMessageFace("ironmaiden_fc1",0,0,2,38)
   ShowMessage("\\n<メイデン>You need me...?")
   0()
  EndIf()
  241(bytes(0x04,0x08,0x6f,0x3a,0x0d,0x52,0x50,0x47,0x3a,0x3a,0x42,0x47,0x4d,0x08,0x3a,0x0a,0x40,0x6e,0x61,0x6d,0x65,0x49,0x22,0x0c,0x63,0x61,0x73,0x74,0x6c,0x65,0x33,0x06,0x3a,0x06,0x45,0x54,0x3a,0x0c,0x40,0x76,0x6f,0x6c,0x75,0x6d,0x65,0x69,0x69,0x3a,0x0b,0x40,0x70,0x69,0x74,0x63,0x68,0x69,0x69))
  ShowMessageFace("grandnoa_fc1",2,0,2,39)
  ShowMessage("\\n<グランドノア女王>You will resume your job as my magical advisor and continue to serve Grand Noah.")
  ShowMessageFace("mefist_fc1",0,0,2,40)
  ShowMessage("\\n<メフィスト>Yes, your Majesty.")
  If(0,6,0)
   ShowMessageFace("sonia_fc3",2,0,2,41)
   ShowMessage("\\n<ソニア>Eh!? That's it!?")
   0()
  Else()
   ShowMessageFace("ruka_fc1",0,0,2,42)
   ShowMessage("\\n<ルカ>Umm, are you sure!?")
   0()
  EndIf()
  ShowMessageFace("mefist_fc1",0,0,2,43)
  ShowMessage("\\n<メフィスト>First of all, an excellent statesman knows you have to swallow the bad with the good.")
  ShowMessageFace("mefist_fc1",0,0,2,44)
  ShowMessage("\\n<メフィスト>Grand Noah should take advantage of talented people, whomever they are. This is especially true during a time of war.")
  If(0,6,0)
   ShowMessageFace("sonia_fc2",4,0,2,45)
   ShowMessage("\\n<ソニア>But what if you turn traitor!?")
   0()
  Else()
   ShowMessageFace("ruka_fc1",0,0,2,46)
   ShowMessage("\\n<ルカ>Is that really a good idea!?")
   0()
  EndIf()
  ShowMessageFace("mefist_fc1",0,0,2,47)
  ShowMessage("\\n<メフィスト>Second, keep your friends close, and your enemies closer. Better to keep them somewhere you can keep your eyes on them.")
  If(0,6,0)
   ShowMessageFace("mefist_fc1",0,0,2,48)
   ShowMessage("\\n<メフィスト>Through me, you may even be able to learn what is being plotted behind the scenes... Was that enlightening, little priestess?")
   ShowMessageFace("sonia_fc1",5,0,2,49)
   ShowMessage("\\n<ソニア>You're pissing me off...")
   0()
  Else()
   ShowMessageFace("mefist_fc1",0,0,2,50)
   ShowMessage("\\n<メフィスト>Through me, you may even be able to learn what is being plotted behind the scenes... Was that enlightening, young hero?")
   ShowMessageFace("ruka_fc1",0,0,2,51)
   ShowMessage("\\n<ルカ>Ngh...")
   0()
  EndIf()
  355("gain_medal(36)")
  ShowMessageFace("mefist_fc1",0,0,2,52)
  ShowMessage("\\n<メフィスト>Well then...")
  PictureClear(5)
  PictureClear(6)
  Wait(60)
  250(bytes(0x04,0x08,0x6f,0x3a,0x0c,0x52,0x50,0x47,0x3a,0x3a,0x53,0x45,0x08,0x3a,0x0a,0x40,0x6e,0x61,0x6d,0x65,0x49,0x22,0x0d,0x6d,0x6f,0x6e,0x5f,0x77,0x61,0x72,0x70,0x06,0x3a,0x06,0x45,0x54,0x3a,0x0b,0x40,0x70,0x69,0x74,0x63,0x68,0x69,0x69,0x3a,0x0c,0x40,0x76,0x6f,0x6c,0x75,0x6d,0x65,0x69,0x55))
  ChangeVariable(1052,1052,0,0,8)
  ChangeVariable(1062,1062,0,0,1)
  ChangeSwitch(100,100,1)
  ShowMessageFace("mefist_fc1",0,0,2,53)
  ShowMessage("\\n<メフィスト>I swear on the honor of my master, the Monster Lord, that I will continue to serve Grand Noah to the best of my ability.")
  PictureDisplay(5,"80_grandnoa_st01",0,0,0,0,100,100,0,0)
  PictureMove(5,null,0,0,0,0,100,100,255,0,30,true)
  ShowMessageFace("grandnoa_fc1",0,0,2,54)
  ShowMessage("\\n<グランドノア女王>All this has confirmed my suspicions that the Monster Lord's influence reaches as far as Grangold.")
  ShowMessageFace("grandnoa_fc1",0,0,2,55)
  ShowMessage("\\n<グランドノア女王>It's possible that their king is being mind controlled just like Queen Sara of Sabasa.")
  If(4,529,0)
   ShowMessageFace("sara_fc1",4,0,2,56)
   ShowMessage("\\n<サラ>The possibility is certainly high...")
   0()
  EndIf()
  ShowMessageFace("grandnoa_fc1",0,0,2,57)
  ShowMessage("\\n<グランドノア女王>Now that it's clear this war is part of the Monster Lord's plan, it would be foolish to act openly against her and aggravate the situation.")
  ShowMessageFace("grandnoa_fc1",0,0,2,58)
  ShowMessage("\\n<グランドノア女王>Hero Luka, I trust I can count on your cooperation in this matter?")
  ShowChoices(strings("Of course!","Heck No!"),0)
  IfPlayerPicksChoice(0,null)
   ShowMessageFace("ruka_fc1",0,0,2,59)
   ShowMessage("\\n<ルカ>Yes, of course!")
   0()
  IfPlayerPicksChoice(1,null)
   ShowMessageFace("ruka_fc1",0,0,2,60)
   ShowMessage("\\n<ルカ>Heck no!")
   If(0,4,0)
    ShowMessageFace("alice_fc5",3,0,2,61)
    ShowMessage("\\n<アリス>Don't say no, idiot.\nA conspiracy involving the Monster Lord is not something we can ignore.")
    ShowMessageFace("alice_fc5",2,0,2,62)
    ShowMessage("\\n<アリス>Needless to say, we'll help. It will more than likely intersect with the rest of our journey anyway.")
    0()
   EndIf()
   If(0,5,0)
    ShowMessageFace("iriasu_fc4",2,0,2,63)
    ShowMessage("\\n<イリアス>And you call yourself a hero...?\nThe Monster Lord's conspiracy is likely intertwined with our journey anyway.")
    ShowMessageFace("iriasu_fc4",0,0,2,64)
    ShowMessage("\\n<イリアス>So yes, we shall assist you in thwarting the Monster Lord's plans and restoring law and order.")
    0()
   EndIf()
   0()
  404()
  ShowMessageFace("grandnoa_fc1",0,0,2,65)
  ShowMessage("\\n<グランドノア女王>My thanks, hero.\nWith our forces combined, let's crush this conspiracy.")
  If(0,2149,0)
   ShowMessageFace("bonny_fc1",1,0,2,66)
   ShowMessage("\\n<ボニー>The Fishy Pirates are with you!")
   ShowMessageFace("ashel_fc1",1,0,2,67)
   ShowMessage("\\n<アシェル>Another great chance to make our name known!")
   0()
  EndIf()
  If(0,2148,0)
   ShowMessageFace("umiusi_k_fc1",0,0,2,68)
   ShowMessage("\\n<ステイシー>The Navy will provide support too, of course!")
   ShowMessageFace("tatunoko_k_fc1",0,0,2,69)
   ShowMessage("\\n<たつこ>Let's do it together!")
   0()
  EndIf()
  ShowMessageFace("grandnoa_fc1",0,0,2,70)
  ShowMessage("\\n<グランドノア女王>I'll convene a council with my senior advisors after this. Based on what we've learned, our strategy is going to need serious revisions.")
  ShowMessageFace("grandnoa_fc1",0,0,2,71)
  ShowMessage("\\n<グランドノア女王>I presume you still want to investigate Esta? As I promised before, the paperwork to add you to the investigation team has been completed.")
  If(0,4,0)
   ShowMessageFace("alice_fc5",0,0,2,72)
   ShowMessage("\\n<アリス>Good, let's head that way.\nIf we follow the signs along the road west, we shouldn't get lost.")
   0()
  EndIf()
  If(0,5,0)
   ShowMessageFace("iriasu_fc4",0,0,2,73)
   ShowMessage("\\n<イリアス>Let's head that way then.\nWe should make it there just fine if we take the road west and follow the signs.")
   0()
  EndIf()
  ShowMessageFace("grandnoa_fc1",0,0,2,74)
  ShowMessage("\\n<グランドノア女王>By the time you return, our war council should have concluded. No doubt we could use your help with whatever our new strategy entails.")
  ShowMessageFace("grandnoa_fc1",0,0,2,75)
  ShowMessage("\\n<グランドノア女王>Godspeed, hero. I await good news from your investigation.")
  ShowMessageFace("ruka_fc1",0,0,2,76)
  ShowMessage("\\n<ルカ>You can count on us!")
  If(1,1061,0,0,0)
   PictureDisplay(5,"80_mefist_st01",0,0,0,0,100,100,0,0)
   PictureMove(5,null,0,0,0,0,100,100,255,0,30,true)
   ShowMessageFace("mefist_fc1",0,0,2,77)
   ShowMessage("\\n<メフィスト>Hero Luka, I have a request for you as well.")
   If(0,6,0)
    ShowMessageFace("sonia_fc3",2,0,2,78)
    ShowMessage("\\n<ソニア>Really? How cheeky can she get?!")
    0()
   Else()
    ShowMessageFace("ruka_fc1",0,0,2,79)
    ShowMessage("\\n<ルカ>Really...?")
    0()
   EndIf()
   ShowMessageFace("mefist_fc1",0,0,2,80)
   ShowMessage("\\n<メフィスト>Well, not a request, per se...\nIt's something right up your alley.")
   ShowMessageFace("mefist_fc1",0,0,2,81)
   ShowMessage("\\n<メフィスト>There's a forest west of here. In that forest is a settlement of monsters named Plansect Village.")
   ShowMessageFace("mefist_fc1",0,0,2,82)
   ShowMessage("\\n<メフィスト>There appears to be significant trouble going on there. The village has split into two warring factions.")
   If(0,4,0)
    ShowMessageFace("alice_fc5",0,0,2,83)
    ShowMessage("\\n<アリス>Conflict between the insect and plant races? From what we heard, Alice the 17th forcefully put a stop to that...")
    0()
   EndIf()
   If(0,5,0)
    ShowMessageFace("iriasu_fc4",2,0,2,84)
    ShowMessage("\\n<イリアス>Conflict between the insect and plant races? I believe we heard that Alice the 17th forcefully put a stop to that...")
    0()
   EndIf()
   ShowMessageFace("mefist_fc1",0,0,2,85)
   ShowMessage("\\n<メフィスト>Someone up to no good may have reignited the conflict. You'll have to go to the village for more details.")
   ShowMessageFace("mefist_fc1",0,0,2,86)
   ShowMessage("\\n<メフィスト>Please put a stop to the fighting in Plansect. Having a source of trouble in our domain is one more chink in our armor that other countries could exploit...")
   If(0,6,0)
    ShowMessageFace("sonia_fc2",4,0,2,87)
    ShowMessage("\\n<ソニア>The nerve of this monster, I swear!")
    0()
   EndIf()
   PictureClear(5)
   ShowMessageFace("",0,0,2,88)
   ShowMessage("In any case, we can't leave a request like that alone. Perhaps we should drop by Plansect Village on our way west...")
   If(1,1056,0,0,0)
    ChangeVariable(1056,1056,0,0,1)
    0()
   EndIf()
   0()
  EndIf()
  PictureClear(5)
  EndEventProcessing()
  0()
 PAGE   2
  // condition: self-switch A is ON
  0()



EVENT   7
 PAGE   1
  // condition: switch 31 is ON
  0()



EVENT   8
 PAGE   1
  // condition: switch 31 is ON
  0()



EVENT   9
 PAGE   1
  ShowMessageFace("",0,0,2,1)
  ShowMessage("\\n<衛兵>謁見の間になります。")
  0()



EVENT   10
 PAGE   1
  ShowMessageFace("",0,0,2,1)
  ShowMessage("\\n<衛兵>女王陛下の御身をお守りするのが、我々近衛兵の務めです。")
  0()



EVENT   11
 PAGE   1
  ShowMessageFace("",0,0,2,1)
  ShowMessage("\\n<メイド>こちらは陛下のお部屋ですが、あまり使っておられないようで。")
  ShowMessage("普段、あのメダル城に...いえいえ、何でもございません。")
  0()



EVENT   12
 PAGE   1
  ShowMessageFace("",0,0,2,1)
  ShowMessage("\\n<衛兵>こちらは会議室となります。")
  0()



EVENT   13
 PAGE   1
  ShowMessageFace("",0,0,2,1)
  ShowMessage("\\n<衛兵>女王陛下のお部屋です。")
  ShowMessage("みだりに立ち入らないようお願いします。")
  0()



EVENT   14
 PAGE   1
  ShowMessageFace("",0,0,2,1)
  ShowMessage("\\n<騎士>この命、女王陛下に捧げております。")
  0()



EVENT   15
 PAGE   1
  ShowMessageFace("",0,0,2,1)
  ShowMessage("\\n<衛兵>女王陛下を狙う賊は、我らが討ち果たす所存。")
  0()

EVENT   16
 PAGE   1
  ShowMessageFace("",0,0,2,1)
  ShowMessage("\\n<騎士>女王陛下に絶対の忠誠を！")
  0()



EVENT   17
 PAGE   1
  ShowMessageFace("",0,0,2,1)
  ShowMessage("\\n<衛兵>戦場で斃れた同胞達のためにも...")
  ShowMessage("陛下の身は、我らが守り抜きます。")
  0()


