// EVENT 0066
Name "Skill: Play 261-270"

ChangeVariable(11,11,0,2,1,5)
If(1,100,0,261,0)
 If(1,11,0,1,0)
  ShowMessageFace("madgolem_fc1",0,0,2,1)
  ShowMessage("【ノーグ】")
  ShowMessage("ストーンキャノン、発射……")
  355("interrupt_skill(3307)")
  EndEventProcessing()
  0()
 EndIf()
 If(1,11,0,2,0)
  ShowMessageFace("madgolem_fc1",0,0,2,2)
  ShowMessage("【ノーグ】")
  ShowMessage("大地に通信しマス……")
  ShowMessageFace("",0,0,2,3)
  ShowMessage("ノーグは地面に落書きをしている……")
  EndEventProcessing()
  0()
 EndIf()
 If(1,11,0,3,0)
  ShowMessageFace("madgolem_fc1",0,0,2,4)
  ShowMessage("【ノーグ】")
  ShowMessage("休眠、開始……")
  313(0,261,0,11)
  ShowMessageFace("",0,0,2,5)
  ShowMessage("ノーグは居眠りしてしまった……")
  EndEventProcessing()
  0()
 EndIf()
 If(1,11,0,4,0)
  ShowMessageFace("madgolem_fc1",0,0,2,6)
  ShowMessage("【ノーグ】")
  ShowMessage("だんごを贈呈しマス……")
  ShowMessageFace("",0,0,2,7)
  ShowMessage("ノーグからの差し入れだ！")
  250(bytes(0x04,0x08,0x6f,0x3a,0x0c,0x52,0x50,0x47,0x3a,0x3a,0x53,0x45,0x08,0x3a,0x0a,0x40,0x6e,0x61,0x6d,0x65,0x49,0x22,0x0a,0x49,0x74,0x65,0x6d,0x31,0x06,0x3a,0x06,0x45,0x54,0x3a,0x0b,0x40,0x70,0x69,0x74,0x63,0x68,0x69,0x69,0x3a,0x0c,0x40,0x76,0x6f,0x6c,0x75,0x6d,0x65,0x69,0x55))
  ChangeInventory_Item(408,0,0,1)
  ShowMessageFace("",0,0,2,8)
  ShowMessage("「おだんご」を手に入れた！")
  EndEventProcessing()
  0()
 EndIf()
 If(1,11,0,5,0)
  ShowMessageFace("madgolem_fc1",0,0,2,9)
  ShowMessage("【ノーグ】")
  ShowMessage("どろどろ……")
  355("interrupt_skill(3174)")
  EndEventProcessing()
  0()
 EndIf()
 0()
EndIf()
If(1,100,0,262,0)
 If(1,11,0,1,0)
  ShowMessageFace("golem_fc1",0,0,2,10)
  ShowMessage("【エメス】")
  ShowMessage("大地への信号……")
  ShowMessageFace("",0,0,2,11)
  ShowMessage("エメスは地面に落書きをしている……")
  EndEventProcessing()
  0()
 EndIf()
 If(1,11,0,2,0)
  ShowMessageFace("golem_fc1",0,0,2,12)
  ShowMessage("【エメス】")
  ShowMessage("待機中……")
  ShowMessageFace("",0,0,2,13)
  ShowMessage("エメスはぼーっとしている……")
  EndEventProcessing()
  0()
 EndIf()
 If(1,11,0,3,0)
  ShowMessageFace("golem_fc1",0,0,2,14)
  ShowMessage("【エメス】")
  ShowMessage("回路、接触不良……")
  313(0,262,0,12)
  ShowMessageFace("",0,0,2,15)
  ShowMessage("エメスは金縛りにあった！")
  EndEventProcessing()
  0()
 EndIf()
 If(1,11,0,4,0)
  ShowMessageFace("golem_fc1",0,0,2,16)
  ShowMessage("【エメス】")
  ShowMessage("警告、漏電発生……")
  355("interrupt_skill(3308)")
  EndEventProcessing()
  0()
 EndIf()
 If(1,11,0,5,0)
  ShowMessageFace("golem_fc1",0,0,2,17)
  ShowMessage("【エメス】")
  ShowMessage("石投げ遊び……")
  355("interrupt_skill(2991)")
  EndEventProcessing()
  0()
 EndIf()
 0()
EndIf()
If(1,100,0,263,0)
 If(1,11,0,1,0)
  ShowMessageFace("h_kamakiri_fc1",0,0,2,18)
  ShowMessage("【ヒナゲシ】")
  ShowMessage("私の舞いを見なさい……")
  355("interrupt_skill(2036)")
  EndEventProcessing()
  0()
 EndIf()
 If(1,11,0,2,0)
  ShowMessageFace("h_kamakiri_fc1",0,0,2,19)
  ShowMessage("【ヒナゲシ】")
  ShowMessage("楽しく踊りましょう……")
  ShowMessageFace("",0,0,2,20)
  ShowMessage("ヒナゲシは陽気に歌って踊っている……")
  EndEventProcessing()
  0()
 EndIf()
 If(1,11,0,3,0)
  ShowMessageFace("h_kamakiri_fc1",0,0,2,21)
  ShowMessage("【ヒナゲシ】")
  ShowMessage("やめなさい……やめるのよ……")
  ShowMessageFace("",0,0,2,22)
  ShowMessage("ヒナゲシは仲裁に入った！")
  ShowMessage("しかし誰も聞いていない……")
  EndEventProcessing()
  0()
 EndIf()
 If(1,11,0,4,0)
  ShowMessageFace("h_kamakiri_fc1",0,0,2,23)
  ShowMessage("【ヒナゲシ】")
  ShowMessage("これを食べなさい……")
  ShowMessageFace("",0,0,2,24)
  ShowMessage("ヒナゲシからの差し入れだ！")
  250(bytes(0x04,0x08,0x6f,0x3a,0x0c,0x52,0x50,0x47,0x3a,0x3a,0x53,0x45,0x08,0x3a,0x0a,0x40,0x6e,0x61,0x6d,0x65,0x49,0x22,0x0a,0x49,0x74,0x65,0x6d,0x31,0x06,0x3a,0x06,0x45,0x54,0x3a,0x0b,0x40,0x70,0x69,0x74,0x63,0x68,0x69,0x69,0x3a,0x0c,0x40,0x76,0x6f,0x6c,0x75,0x6d,0x65,0x69,0x55))
  ChangeInventory_Item(361,0,0,1)
  ShowMessageFace("",0,0,2,25)
  ShowMessage("「おにぎり」を手に入れた！")
  EndEventProcessing()
  0()
 EndIf()
 If(1,11,0,5,0)
  ShowMessageFace("h_kamakiri_fc1",0,0,2,26)
  ShowMessage("【ヒナゲシ】")
  ShowMessage("……………………")
  355("interrupt_skill(3296)")
  EndEventProcessing()
  0()
 EndIf()
 0()
EndIf()
If(1,100,0,264,0)
 If(1,11,0,1,0)
  ShowMessageFace("bgolem_fc1",0,0,2,27)
  ShowMessage("【マイス】")
  ShowMessage("面倒くさいわね……")
  ShowMessageFace("",0,0,2,28)
  ShowMessage("マイスはぼーっとしている……")
  EndEventProcessing()
  0()
 EndIf()
 If(1,11,0,2,0)
  ShowMessageFace("bgolem_fc1",2,0,2,29)
  ShowMessage("【マイス】")
  ShowMessage("うぇ～ん！")
  ShowMessageFace("",0,0,2,30)
  ShowMessage("マイスは突然泣き出した！")
  EndEventProcessing()
  0()
 EndIf()
 If(1,11,0,3,0)
  ShowMessageFace("bgolem_fc1",1,0,2,31)
  ShowMessage("【マイス】")
  ShowMessage("ばんざ～い！")
  ShowMessageFace("",0,0,2,32)
  ShowMessage("マイスはクラッカーを鳴らした！")
  ShowMessage("しかし誰も相手にしない……")
  EndEventProcessing()
  0()
 EndIf()
 If(1,11,0,4,0)
  ShowMessageFace("bgolem_fc1",1,0,2,33)
  ShowMessage("【マイス】")
  ShowMessage("これ、あげる！")
  ShowMessageFace("",0,0,2,34)
  ShowMessage("マイスからの差し入れだ！")
  250(bytes(0x04,0x08,0x6f,0x3a,0x0c,0x52,0x50,0x47,0x3a,0x3a,0x53,0x45,0x08,0x3a,0x0a,0x40,0x6e,0x61,0x6d,0x65,0x49,0x22,0x0a,0x49,0x74,0x65,0x6d,0x31,0x06,0x3a,0x06,0x45,0x54,0x3a,0x0b,0x40,0x70,0x69,0x74,0x63,0x68,0x69,0x69,0x3a,0x0c,0x40,0x76,0x6f,0x6c,0x75,0x6d,0x65,0x69,0x55))
  ChangeInventory_Item(444,0,0,1)
  ShowMessageFace("",0,0,2,35)
  ShowMessage("「ドクロ」を手に入れた！")
  EndEventProcessing()
  0()
 EndIf()
 If(1,11,0,5,0)
  ShowMessageFace("bgolem_fc1",1,0,2,36)
  ShowMessage("【マイス】")
  ShowMessage("火遊び、サイコー！")
  355("interrupt_skill(3295)")
  EndEventProcessing()
  0()
 EndIf()
 0()
EndIf()
If(1,100,0,265,0)
 If(1,11,0,1,0)
  ShowMessageFace("kitunezyu_fc1",0,0,2,37)
  ShowMessage("【はるか】")
  ShowMessage("はるか、いきまーす♪")
  ShowMessageFace("",0,0,2,38)
  ShowMessage("はるかは決めポーズを繰り出した！")
  ShowMessage("しかし誰も見ていない……")
  EndEventProcessing()
  0()
 EndIf()
 If(1,11,0,2,0)
  ShowMessageFace("kitunezyu_fc1",0,0,2,39)
  ShowMessage("【はるか】")
  ShowMessage("ほりほり、あなほり……")
  355("interrupt_skill(3297)")
  EndEventProcessing()
  0()
 EndIf()
 If(1,11,0,3,0)
  ShowMessageFace("kitunezyu_fc1",1,0,2,40)
  ShowMessage("【はるか】")
  ShowMessage("……………………")
  313(0,265,0,24)
  ShowMessageFace("",0,0,2,41)
  ShowMessage("はるかはいやらしい事を考えている……")
  ShowMessage("はるかは敏感になってしまった！")
  EndEventProcessing()
  0()
 EndIf()
 If(1,11,0,4,0)
  ShowMessageFace("kitunezyu_fc1",0,0,2,42)
  ShowMessage("【はるか】")
  ShowMessage("これ、おすそわけ！")
  ShowMessageFace("",0,0,2,43)
  ShowMessage("はるかからの差し入れだ！")
  250(bytes(0x04,0x08,0x6f,0x3a,0x0c,0x52,0x50,0x47,0x3a,0x3a,0x53,0x45,0x08,0x3a,0x0a,0x40,0x6e,0x61,0x6d,0x65,0x49,0x22,0x0a,0x49,0x74,0x65,0x6d,0x31,0x06,0x3a,0x06,0x45,0x54,0x3a,0x0b,0x40,0x70,0x69,0x74,0x63,0x68,0x69,0x69,0x3a,0x0c,0x40,0x76,0x6f,0x6c,0x75,0x6d,0x65,0x69,0x55))
  ChangeInventory_Item(333,0,0,1)
  ShowMessageFace("",0,0,2,44)
  ShowMessage("「あぶらあげ」を手に入れた！")
  EndEventProcessing()
  0()
 EndIf()
 If(1,11,0,5,0)
  ShowMessageFace("kitunezyu_fc1",0,0,2,45)
  ShowMessage("【はるか】")
  ShowMessage("ほりほり、あなほり……")
  355("interrupt_skill(3298)")
  EndEventProcessing()
  0()
 EndIf()
 0()
EndIf()
If(1,100,0,266,0)
 If(1,11,0,1,0)
  ShowMessageFace("kunoitisanbi_fc1",0,0,2,46)
  ShowMessage("【ミナモ】")
  ShowMessage("にんにん……")
  ShowMessageFace("",0,0,2,47)
  ShowMessage("ミナモはにんにん呟いている……")
  EndEventProcessing()
  0()
 EndIf()
 If(1,11,0,2,0)
  ShowMessageFace("kunoitisanbi_fc1",2,0,2,48)
  ShowMessage("【ミナモ】")
  ShowMessage("管狐を作るには、確かこんな風に陰陽術を……")
  ShowMessage("……しまった！！")
  355("interrupt_skill(3306)")
  EndEventProcessing()
  0()
 EndIf()
 If(1,11,0,3,0)
  ShowMessageFace("kunoitisanbi_fc1",0,0,2,49)
  ShowMessage("【ミナモ】")
  ShowMessage("心を無にしているのだ……")
  313(0,266,0,11)
  ShowMessageFace("",0,0,2,50)
  ShowMessage("ミナモは居眠りしている……")
  EndEventProcessing()
  0()
 EndIf()
 If(1,11,0,4,0)
  ShowMessageFace("kunoitisanbi_fc1",0,0,2,51)
  ShowMessage("【ミナモ】")
  ShowMessage("これを食べるがいい……")
  ShowMessageFace("",0,0,2,52)
  ShowMessage("ミナモからの差し入れだ！")
  250(bytes(0x04,0x08,0x6f,0x3a,0x0c,0x52,0x50,0x47,0x3a,0x3a,0x53,0x45,0x08,0x3a,0x0a,0x40,0x6e,0x61,0x6d,0x65,0x49,0x22,0x0a,0x49,0x74,0x65,0x6d,0x31,0x06,0x3a,0x06,0x45,0x54,0x3a,0x0b,0x40,0x70,0x69,0x74,0x63,0x68,0x69,0x69,0x3a,0x0c,0x40,0x76,0x6f,0x6c,0x75,0x6d,0x65,0x69,0x55))
  ChangeInventory_Item(333,0,0,1)
  ShowMessageFace("",0,0,2,53)
  ShowMessage("「あぶらあげ」を手に入れた！")
  EndEventProcessing()
  0()
 EndIf()
 If(1,11,0,5,0)
  ShowMessageFace("kunoitisanbi_fc1",0,0,2,54)
  ShowMessage("【ミナモ】")
  ShowMessage("はぁっ！")
  355("interrupt_skill(3294)")
  EndEventProcessing()
  0()
 EndIf()
 0()
EndIf()
If(1,100,0,267,0)
 If(1,11,0,1,0)
  ShowMessageFace("mononohuyonbi_fc1",0,0,2,55)
  ShowMessage("【イヅナ】")
  ShowMessage("気合いを入れるぞ！！")
  355("interrupt_skill(3294)")
  EndEventProcessing()
  0()
 EndIf()
 If(1,11,0,2,0)
  ShowMessageFace("mononohuyonbi_fc1",0,0,2,56)
  ShowMessage("【イヅナ】")
  ShowMessage("管狐……？")
  ShowMessage("おい、管狐はどこに行った……？")
  ShowMessageFace("",0,0,2,57)
  ShowMessage("イヅナは迷子になった管狐を探している……")
  EndEventProcessing()
  0()
 EndIf()
 If(1,11,0,3,0)
  ShowMessageFace("mononohuyonbi_fc1",0,0,2,58)
  ShowMessage("【イヅナ】")
  ShowMessage("いついかなる時も、鍛錬は欠かさん……")
  ShowMessageFace("",0,0,2,59)
  ShowMessage("イヅナはこっそり修行している……")
  EndEventProcessing()
  0()
 EndIf()
 If(1,11,0,4,0)
  ShowMessageFace("mononohuyonbi_fc1",0,0,2,60)
  ShowMessage("【イヅナ】")
  ShowMessage("ほら、これを食うがいい。")
  ShowMessageFace("",0,0,2,61)
  ShowMessage("イヅナからの差し入れだ！")
  250(bytes(0x04,0x08,0x6f,0x3a,0x0c,0x52,0x50,0x47,0x3a,0x3a,0x53,0x45,0x08,0x3a,0x0a,0x40,0x6e,0x61,0x6d,0x65,0x49,0x22,0x0a,0x49,0x74,0x65,0x6d,0x31,0x06,0x3a,0x06,0x45,0x54,0x3a,0x0b,0x40,0x70,0x69,0x74,0x63,0x68,0x69,0x69,0x3a,0x0c,0x40,0x76,0x6f,0x6c,0x75,0x6d,0x65,0x69,0x55))
  ChangeInventory_Item(333,0,0,1)
  ShowMessageFace("",0,0,2,62)
  ShowMessage("「あぶらあげ」を手に入れた！")
  EndEventProcessing()
  0()
 EndIf()
 If(1,11,0,5,0)
  ShowMessageFace("mononohuyonbi_fc1",0,0,2,63)
  ShowMessage("【イヅナ】")
  ShowMessage("はいやーっ！！")
  355("interrupt_skill(3292)")
  EndEventProcessing()
  0()
 EndIf()
 0()
EndIf()
If(1,100,0,268,0)
 If(1,11,0,1,0)
  ShowMessageFace("queenant_fc1",1,0,2,64)
  ShowMessage("【アンティーヌ・アン】")
  ShowMessage("おのれ、蜘蛛之皇女……")
  ShowMessageFace("",0,0,2,65)
  ShowMessage("アンティーヌ・アンは蜘蛛之皇女の髪をワラ人形に詰めた！")
  ShowMessage("そのまま、五寸釘で木に打ち付けている……")
  EndEventProcessing()
  0()
 EndIf()
 If(1,11,0,2,0)
  ShowMessageFace("queenant_fc1",0,0,2,66)
  ShowMessage("【アンティーヌ・アン】")
  ShowMessage("娘達、あの敵に攻撃するのです……！")
  355("interrupt_skill(2878)")
  EndEventProcessing()
  0()
 EndIf()
 If(1,11,0,3,0)
  ShowMessageFace("queenant_fc1",0,0,2,67)
  ShowMessage("【アンティーヌ・アン】")
  ShowMessage("少し休みましょう……")
  313(0,268,0,11)
  ShowMessageFace("",0,0,2,68)
  ShowMessage("アンティーヌ・アンは居眠りしている……")
  EndEventProcessing()
  0()
 EndIf()
 If(1,11,0,4,0)
  ShowMessageFace("queenant_fc1",0,0,2,69)
  ShowMessage("【アンティーヌ・アン】")
  ShowMessage("さあ、踊りましょう……♪")
  ShowMessageFace("",0,0,2,70)
  ShowMessage("アンティーヌ・アンはゆかいなダンスを踊った！")
  ShowMessage("しかし何も起きなかった……")
  EndEventProcessing()
  0()
 EndIf()
 If(1,11,0,5,0)
  ShowMessageFace("queenant_fc1",0,0,2,71)
  ShowMessage("【アンティーヌ・アン】")
  ShowMessage("ふふっ……")
  355("interrupt_skill(3296)")
  EndEventProcessing()
  0()
 EndIf()
 0()
EndIf()
If(1,100,0,269,0)
 If(1,11,0,1,0)
  ShowMessageFace("yougan_fc1",0,0,2,72)
  ShowMessage("【ロミ】")
  ShowMessage("どろどろ……")
  ShowMessageFace("",0,0,2,73)
  ShowMessage("ロミはぼーっとしている……")
  EndEventProcessing()
  0()
 EndIf()
 If(1,11,0,2,0)
  ShowMessageFace("yougan_fc1",0,0,2,74)
  ShowMessage("【ロミ】")
  ShowMessage("溶岩だって、お腹が減るのよ……")
  ShowMessageFace("",0,0,2,75)
  ShowMessage("ロミは食料を盗み食いしている……")
  EndEventProcessing()
  0()
 EndIf()
 If(1,11,0,3,0)
  ShowMessageFace("yougan_fc1",1,0,2,76)
  ShowMessage("【ロミ】")
  ShowMessage("……ニコッ。")
  ShowMessageFace("",0,0,2,77)
  ShowMessage("ロミはにっこり微笑んだ！")
  ShowMessage("しかし何も起きなかった……")
  EndEventProcessing()
  0()
 EndIf()
 If(1,11,0,4,0)
  ShowMessageFace("yougan_fc1",1,0,2,78)
  ShowMessage("【ロミ】")
  ShowMessage("これ、食べなさい……")
  ShowMessageFace("",0,0,2,79)
  ShowMessage("ロミからの差し入れだ！")
  250(bytes(0x04,0x08,0x6f,0x3a,0x0c,0x52,0x50,0x47,0x3a,0x3a,0x53,0x45,0x08,0x3a,0x0a,0x40,0x6e,0x61,0x6d,0x65,0x49,0x22,0x0a,0x49,0x74,0x65,0x6d,0x31,0x06,0x3a,0x06,0x45,0x54,0x3a,0x0b,0x40,0x70,0x69,0x74,0x63,0x68,0x69,0x69,0x3a,0x0c,0x40,0x76,0x6f,0x6c,0x75,0x6d,0x65,0x69,0x55))
  ChangeInventory_Item(413,0,0,1)
  ShowMessageFace("",0,0,2,80)
  ShowMessage("「焼きいも」を手に入れた！")
  EndEventProcessing()
  0()
 EndIf()
 If(1,11,0,5,0)
  ShowMessageFace("yougan_fc1",1,0,2,81)
  ShowMessage("【ロミ】")
  ShowMessage("マグマが溢れ出すわ……")
  355("interrupt_skill(3030)")
  EndEventProcessing()
  0()
 EndIf()
 0()
EndIf()
If(1,100,0,270,0)
 If(1,11,0,1,0)
  ShowMessageFace("lamiad_fc1",0,0,2,82)
  ShowMessage("【アルビーナ】")
  ShowMessage("ジャグリング、得意だよー！")
  ShowMessageFace("",0,0,2,83)
  ShowMessage("アルビーナはジャグリングしている……")
  ShowMessage("しかし、誰も見ていない！")
  EndEventProcessing()
  0()
 EndIf()
 If(1,11,0,2,0)
  ShowMessageFace("lamiad_fc1",0,0,2,84)
  ShowMessage("【アルビーナ】")
  ShowMessage("ごろごろ～♪")
  355("interrupt_skill(3317)")
  EndEventProcessing()
  0()
 EndIf()
 If(1,11,0,3,0)
  ShowMessageFace("lamiad_fc1",0,0,2,85)
  ShowMessage("【アルビーナ】")
  ShowMessage("スキュラきらい……")
  ShowMessageFace("",0,0,2,86)
  ShowMessage("アルビーナは一人で愚痴を言っている……")
  EndEventProcessing()
  0()
 EndIf()
 If(1,11,0,4,0)
  ShowMessageFace("lamiad_fc1",0,0,2,87)
  ShowMessage("【アルビーナ】")
  ShowMessage("これ、おいしいよ♪")
  ShowMessageFace("",0,0,2,88)
  ShowMessage("アルビーナからの差し入れだ！")
  250(bytes(0x04,0x08,0x6f,0x3a,0x0c,0x52,0x50,0x47,0x3a,0x3a,0x53,0x45,0x08,0x3a,0x0a,0x40,0x6e,0x61,0x6d,0x65,0x49,0x22,0x0a,0x49,0x74,0x65,0x6d,0x31,0x06,0x3a,0x06,0x45,0x54,0x3a,0x0b,0x40,0x70,0x69,0x74,0x63,0x68,0x69,0x69,0x3a,0x0c,0x40,0x76,0x6f,0x6c,0x75,0x6d,0x65,0x69,0x55))
  ChangeInventory_Item(331,0,0,1)
  ShowMessageFace("",0,0,2,89)
  ShowMessage("「ソーセージ」を手に入れた！")
  EndEventProcessing()
  0()
 EndIf()
 If(1,11,0,5,0)
  ShowMessageFace("lamiad_fc1",0,0,2,90)
  ShowMessage("【アルビーナ】")
  ShowMessage("うふふっ♪")
  355("interrupt_skill(3296)")
  EndEventProcessing()
  0()
 EndIf()
 0()
EndIf()
0()
